EESchema Schematic File Version 4
EELAYER 30 0
EELAYER END
$Descr A4 11693 8268
encoding utf-8
Sheet 1 1
Title ""
Date ""
Rev ""
Comp ""
Comment1 ""
Comment2 ""
Comment3 ""
Comment4 ""
$EndDescr
$Comp
L fab:Conn_StepStick J2
U 1 1 6063B7FD
P 4975 3600
F 0 "J2" H 4975 4281 50  0000 C CNN
F 1 "Conn_StepStick" H 4975 4190 50  0000 C CNN
F 2 "fab:Conn_StepStick" H 5175 2900 50  0001 L CNN
F 3 "https://www.trinamic.com/fileadmin/assets/Products/Eval_Drawings/SilentStepStick-TMC2100_v13.pdf" H 4975 4000 50  0001 C CNN
	1    4975 3600
	1    0    0    -1  
$EndComp
$Comp
L fab:Bridge_Rectifier_DI_HD01-T D2
U 1 1 606432CB
P 2025 6125
F 0 "D2" V 2071 5781 50  0000 R CNN
F 1 "Bridge_Rectifier_DI_HD01-T" V 1980 5781 50  0000 R CNN
F 2 "fab:Bridge_Rectifier_DI_HD01-T" H 2025 6125 50  0001 C CNN
F 3 "https://www.diodes.com/assets/Datasheets/products_inactive_data/ds17003.pdf" H 2025 6125 50  0001 C CNN
	1    2025 6125
	0    -1   -1   0   
$EndComp
$Comp
L fab:LED D1
U 1 1 60644044
P 3150 1925
F 0 "D1" H 3143 1670 50  0000 C CNN
F 1 "12V_LED" H 3143 1761 50  0000 C CNN
F 2 "fab:LED_1206" H 3150 1925 50  0001 C CNN
F 3 "https://optoelectronics.liteon.com/upload/download/DS-22-98-0002/LTST-C150CKT.pdf" H 3150 1925 50  0001 C CNN
	1    3150 1925
	-1   0    0    1   
$EndComp
$Comp
L fab:LED D4
U 1 1 606448F7
P 10125 1800
F 0 "D4" H 10118 1545 50  0000 C CNN
F 1 "5V_LED" H 10118 1636 50  0000 C CNN
F 2 "fab:LED_1206" H 10125 1800 50  0001 C CNN
F 3 "https://optoelectronics.liteon.com/upload/download/DS-22-98-0002/LTST-C150CKT.pdf" H 10125 1800 50  0001 C CNN
	1    10125 1800
	-1   0    0    1   
$EndComp
$Comp
L fab:R R2
U 1 1 6064527E
P 9550 1800
F 0 "R2" V 9343 1800 50  0000 C CNN
F 1 "1K" V 9434 1800 50  0000 C CNN
F 2 "fab:R_1206" V 9480 1800 50  0001 C CNN
F 3 "~" H 9550 1800 50  0001 C CNN
	1    9550 1800
	0    1    1    0   
$EndComp
$Comp
L fab:R R1
U 1 1 60645A37
P 2575 1925
F 0 "R1" V 2368 1925 50  0000 C CNN
F 1 "4.9K" V 2459 1925 50  0000 C CNN
F 2 "fab:R_1206" V 2505 1925 50  0001 C CNN
F 3 "~" H 2575 1925 50  0001 C CNN
	1    2575 1925
	0    1    1    0   
$EndComp
$Comp
L fab:CP C1
U 1 1 60646EDA
P 5750 2975
F 0 "C1" H 5868 3021 50  0000 L CNN
F 1 "100uF" H 5868 2930 50  0000 L CNN
F 2 "fab:CP_Elec_10x10" H 5750 2975 50  0001 C CNN
F 3 "" H 5750 2975 50  0001 C CNN
	1    5750 2975
	1    0    0    -1  
$EndComp
$Comp
L fab:DC_Power_Jack_CUI_PJ-002AH-SMT-TR J1
U 1 1 60651503
P 1725 2025
F 0 "J1" H 1782 2342 50  0000 C CNN
F 1 "DC_Power_Jack_CUI_PJ-002AH-SMT-TR" H 1782 2251 50  0000 C CNN
F 2 "fab:DC_Power_Jack_CUI_PJ-002AH-SMT-TR" H 1775 1985 50  0001 C CNN
F 3 "https://www.cuidevices.com/product/resource/pj-002ah-smt-tr.pdf" H 1775 1985 50  0001 C CNN
	1    1725 2025
	1    0    0    -1  
$EndComp
Wire Wire Line
	5475 3500 5825 3500
Wire Wire Line
	5475 3600 5825 3600
Wire Wire Line
	5475 3700 5825 3700
Wire Wire Line
	5475 3800 5825 3800
$Comp
L power:+5V #PWR012
U 1 1 60676C5C
P 9225 1450
F 0 "#PWR012" H 9225 1300 50  0001 C CNN
F 1 "+5V" H 9240 1623 50  0000 C CNN
F 2 "" H 9225 1450 50  0001 C CNN
F 3 "" H 9225 1450 50  0001 C CNN
	1    9225 1450
	1    0    0    -1  
$EndComp
Wire Wire Line
	5475 4000 6200 4000
$Comp
L power:GND #PWR07
U 1 1 606798D7
P 6650 3900
F 0 "#PWR07" H 6650 3650 50  0001 C CNN
F 1 "GND" V 6655 3772 50  0000 R CNN
F 2 "" H 6650 3900 50  0001 C CNN
F 3 "" H 6650 3900 50  0001 C CNN
	1    6650 3900
	0    -1   -1   0   
$EndComp
Wire Wire Line
	5475 3300 5750 3300
$Comp
L power:GND #PWR09
U 1 1 6067AB6D
P 6275 3300
F 0 "#PWR09" H 6275 3050 50  0001 C CNN
F 1 "GND" V 6280 3172 50  0000 R CNN
F 2 "" H 6275 3300 50  0001 C CNN
F 3 "" H 6275 3300 50  0001 C CNN
	1    6275 3300
	0    -1   -1   0   
$EndComp
Wire Wire Line
	5475 3400 6675 3400
$Comp
L power:+5V #PWR010
U 1 1 6067B56E
P 6675 3400
F 0 "#PWR010" H 6675 3250 50  0001 C CNN
F 1 "+5V" V 6690 3528 50  0000 L CNN
F 2 "" H 6675 3400 50  0001 C CNN
F 3 "" H 6675 3400 50  0001 C CNN
	1    6675 3400
	0    1    1    0   
$EndComp
Wire Wire Line
	4475 3300 3825 3300
Text Label 3825 3300 0    50   ~ 0
DIR
Wire Wire Line
	4475 3400 3825 3400
Text Label 3825 3400 0    50   ~ 0
STEP
Wire Wire Line
	4475 4000 4000 4000
Text Label 3100 4000 0    50   ~ 0
EN
Text Label 9550 3875 2    50   ~ 0
EN
Text Label 9450 3400 2    50   ~ 0
DIR
Text Label 10175 3100 2    50   ~ 0
STEP
Wire Wire Line
	4475 3800 4000 3800
Wire Wire Line
	4000 3800 4000 4000
Connection ~ 4000 4000
Wire Wire Line
	4475 3900 4325 3900
Wire Wire Line
	4325 3900 4325 3700
Wire Wire Line
	4325 3700 4475 3700
Wire Wire Line
	4325 3900 4325 4275
Connection ~ 4325 3900
$Comp
L power:GND #PWR03
U 1 1 60694BF7
P 4325 4275
F 0 "#PWR03" H 4325 4025 50  0001 C CNN
F 1 "GND" H 4330 4102 50  0000 C CNN
F 2 "" H 4325 4275 50  0001 C CNN
F 3 "" H 4325 4275 50  0001 C CNN
	1    4325 4275
	1    0    0    -1  
$EndComp
Wire Wire Line
	2025 1925 2225 1925
Wire Wire Line
	2725 1925 3000 1925
Wire Wire Line
	3300 1925 3825 1925
Wire Wire Line
	3825 1925 3825 2225
Wire Wire Line
	3825 2225 2025 2225
Connection ~ 2025 2225
$Comp
L power:GND #PWR01
U 1 1 606A195B
P 2025 2450
F 0 "#PWR01" H 2025 2200 50  0001 C CNN
F 1 "GND" H 2030 2277 50  0000 C CNN
F 2 "" H 2025 2450 50  0001 C CNN
F 3 "" H 2025 2450 50  0001 C CNN
	1    2025 2450
	1    0    0    -1  
$EndComp
Connection ~ 2225 1925
Wire Wire Line
	2225 1925 2425 1925
$Comp
L power:+12V #PWR02
U 1 1 606A4839
P 2225 1375
F 0 "#PWR02" H 2225 1225 50  0001 C CNN
F 1 "+12V" H 2240 1548 50  0000 C CNN
F 2 "" H 2225 1375 50  0001 C CNN
F 3 "" H 2225 1375 50  0001 C CNN
	1    2225 1375
	1    0    0    -1  
$EndComp
$Comp
L power:GND #PWR013
U 1 1 606C0497
P 10625 2275
F 0 "#PWR013" H 10625 2025 50  0001 C CNN
F 1 "GND" H 10630 2102 50  0000 C CNN
F 2 "" H 10625 2275 50  0001 C CNN
F 3 "" H 10625 2275 50  0001 C CNN
	1    10625 2275
	1    0    0    -1  
$EndComp
Wire Wire Line
	5750 3125 5750 3300
Connection ~ 5750 3300
Wire Wire Line
	5750 3300 6275 3300
$Comp
L power:+12V #PWR06
U 1 1 606C834E
P 5750 2550
F 0 "#PWR06" H 5750 2400 50  0001 C CNN
F 1 "+12V" H 5765 2723 50  0000 C CNN
F 2 "" H 5750 2550 50  0001 C CNN
F 3 "" H 5750 2550 50  0001 C CNN
	1    5750 2550
	1    0    0    -1  
$EndComp
Wire Wire Line
	5750 2825 5750 2550
$Comp
L fab:Bridge_Rectifier_DI_HD01-T D3
U 1 1 606CA903
P 2950 5800
F 0 "D3" V 2996 5456 50  0000 R CNN
F 1 "Bridge_Rectifier_DI_HD01-T" V 2905 5456 50  0000 R CNN
F 2 "fab:Bridge_Rectifier_DI_HD01-T" H 2950 5800 50  0001 C CNN
F 3 "https://www.diodes.com/assets/Datasheets/products_inactive_data/ds17003.pdf" H 2950 5800 50  0001 C CNN
	1    2950 5800
	0    -1   -1   0   
$EndComp
Wire Wire Line
	2025 5825 2025 5150
Wire Wire Line
	2025 5150 2950 5150
Wire Wire Line
	2950 5150 2950 5500
Wire Wire Line
	2950 5150 2950 5025
Connection ~ 2950 5150
$Comp
L power:+12V #PWR05
U 1 1 606DE7CE
P 2950 5025
F 0 "#PWR05" H 2950 4875 50  0001 C CNN
F 1 "+12V" H 2965 5198 50  0000 C CNN
F 2 "" H 2950 5025 50  0001 C CNN
F 3 "" H 2950 5025 50  0001 C CNN
	1    2950 5025
	1    0    0    -1  
$EndComp
Wire Wire Line
	2950 6100 2950 6525
Wire Wire Line
	2950 6525 2025 6525
Wire Wire Line
	2025 6525 2025 6425
Wire Wire Line
	2025 6525 2025 6900
Connection ~ 2025 6525
$Comp
L power:GND #PWR04
U 1 1 606E2422
P 2025 6900
F 0 "#PWR04" H 2025 6650 50  0001 C CNN
F 1 "GND" H 2030 6727 50  0000 C CNN
F 2 "" H 2025 6900 50  0001 C CNN
F 3 "" H 2025 6900 50  0001 C CNN
	1    2025 6900
	1    0    0    -1  
$EndComp
Text Label 5825 3500 2    50   ~ 0
M1B
Text Label 5825 3600 2    50   ~ 0
M1A
Text Label 5825 3700 2    50   ~ 0
M2A
Text Label 5825 3800 2    50   ~ 0
M2B
Text Label 6100 5275 0    50   ~ 0
M2A
Text Label 6100 5375 0    50   ~ 0
M2B
Wire Wire Line
	1725 6125 1475 6125
Wire Wire Line
	1475 6125 1475 5675
Wire Wire Line
	1475 5675 1050 5675
Wire Wire Line
	2325 6125 2325 5550
Wire Wire Line
	2325 5550 1050 5550
Wire Wire Line
	2650 5800 2650 5425
Wire Wire Line
	2650 5425 1050 5425
Wire Wire Line
	3250 5800 3250 5300
Wire Wire Line
	3250 5300 1050 5300
Text Label 1050 5550 0    50   ~ 0
M2B
Text Label 1050 5675 0    50   ~ 0
M2A
Text Label 1050 5300 0    50   ~ 0
M1A
Text Label 1050 5425 0    50   ~ 0
M1B
$Comp
L power:PWR_FLAG #FLG0101
U 1 1 60738053
P 2225 1550
F 0 "#FLG0101" H 2225 1625 50  0001 C CNN
F 1 "PWR_FLAG" V 2225 1678 50  0000 L CNN
F 2 "" H 2225 1550 50  0001 C CNN
F 3 "~" H 2225 1550 50  0001 C CNN
	1    2225 1550
	0    1    1    0   
$EndComp
$Comp
L power:PWR_FLAG #FLG0102
U 1 1 6073B268
P 2025 2350
F 0 "#FLG0102" H 2025 2425 50  0001 C CNN
F 1 "PWR_FLAG" V 2025 2478 50  0000 L CNN
F 2 "" H 2025 2350 50  0001 C CNN
F 3 "~" H 2025 2350 50  0001 C CNN
	1    2025 2350
	0    1    1    0   
$EndComp
Text Label 6100 5625 0    50   ~ 0
M1A
Text Label 6100 5525 0    50   ~ 0
M1B
$Comp
L fab:Screw_Terminal_01x02_P3.5mm J3
U 1 1 607CBFBB
P 6550 5275
F 0 "J3" H 6630 5267 50  0000 L CNN
F 1 "Screw_Terminal_01x02_P3.5mm" H 6630 5176 50  0000 L CNN
F 2 "fab:TerminalBlock_OnShore_1x02_P3.50mm_Horizontal" H 6550 5275 50  0001 C CNN
F 3 "www.on-shore.com/wp-content/uploads/ED555XDS.pdf" H 6550 5275 50  0001 C CNN
	1    6550 5275
	1    0    0    -1  
$EndComp
$Comp
L fab:Screw_Terminal_01x02_P3.5mm J4
U 1 1 607CCEB3
P 6550 5525
F 0 "J4" H 6630 5517 50  0000 L CNN
F 1 "Screw_Terminal_01x02_P3.5mm" H 6630 5426 50  0000 L CNN
F 2 "fab:TerminalBlock_OnShore_1x02_P3.50mm_Horizontal" H 6550 5525 50  0001 C CNN
F 3 "www.on-shore.com/wp-content/uploads/ED555XDS.pdf" H 6550 5525 50  0001 C CNN
	1    6550 5525
	1    0    0    -1  
$EndComp
Wire Wire Line
	6350 5275 6100 5275
Wire Wire Line
	6350 5375 6100 5375
Wire Wire Line
	6350 5525 6100 5525
Wire Wire Line
	6350 5625 6100 5625
Wire Wire Line
	5475 3900 6650 3900
$Comp
L fab:R R3
U 1 1 606A83B6
P 3600 4000
F 0 "R3" V 3393 4000 50  0000 C CNN
F 1 "0" V 3484 4000 50  0000 C CNN
F 2 "fab:R_1206" V 3530 4000 50  0001 C CNN
F 3 "~" H 3600 4000 50  0001 C CNN
	1    3600 4000
	0    1    1    0   
$EndComp
Wire Wire Line
	3750 4000 4000 4000
Wire Wire Line
	3100 4000 3450 4000
$Comp
L fab:R R4
U 1 1 606B3104
P 9600 3100
F 0 "R4" V 9393 3100 50  0000 C CNN
F 1 "0" V 9484 3100 50  0000 C CNN
F 2 "fab:R_1206" V 9530 3100 50  0001 C CNN
F 3 "~" H 9600 3100 50  0001 C CNN
	1    9600 3100
	0    1    1    0   
$EndComp
$Comp
L fab:Conn_TH_01x08_Male J5
U 1 1 60692318
P 8625 1700
F 0 "J5" H 8733 2181 50  0000 C CNN
F 1 "Arduino Power" H 8733 2090 50  0000 C CNN
F 2 "fab:Conn_Header_TH_01x08_Male" H 8625 1700 50  0001 C CNN
F 3 "https://media.digikey.com/PDF/Data%20Sheets/Sullins%20PDFs/xRxCzzzSxxN-RC_ST_11635-B.pdf" H 8625 1700 50  0001 C CNN
	1    8625 1700
	1    0    0    -1  
$EndComp
$Comp
L fab:Conn_TH_01x08_Male J6
U 1 1 6069354B
P 8625 3200
F 0 "J6" H 8733 3681 50  0000 C CNN
F 1 "Arduino Digital A" H 8733 3590 50  0000 C CNN
F 2 "fab:Conn_Header_TH_01x08_Male" H 8625 3200 50  0001 C CNN
F 3 "https://media.digikey.com/PDF/Data%20Sheets/Sullins%20PDFs/xRxCzzzSxxN-RC_ST_11635-B.pdf" H 8625 3200 50  0001 C CNN
	1    8625 3200
	1    0    0    -1  
$EndComp
$Comp
L fab:Conn_TH_01x07_Male J7
U 1 1 60694BD4
P 8625 4175
F 0 "J7" H 8733 4656 50  0000 C CNN
F 1 "Arduino Digital B" H 8733 4565 50  0000 C CNN
F 2 "fab:Conn_Header_TH_01x07_Male" H 8625 4175 50  0001 C CNN
F 3 "https://media.digikey.com/PDF/Data%20Sheets/Sullins%20PDFs/xRxCzzzSxxN-RC_ST_11635-B.pdf" H 8625 4175 50  0001 C CNN
	1    8625 4175
	1    0    0    -1  
$EndComp
Wire Wire Line
	8825 1800 9225 1800
Wire Wire Line
	9700 1800 9975 1800
Wire Wire Line
	10275 1800 10625 1800
Connection ~ 9225 1800
Wire Wire Line
	9225 1800 9400 1800
Wire Wire Line
	10625 1800 10625 2275
Wire Wire Line
	8975 1900 8975 2000
Wire Wire Line
	8825 1900 8975 1900
Wire Wire Line
	8825 2000 8975 2000
Connection ~ 8975 2000
Wire Wire Line
	8975 2000 8975 2275
$Comp
L power:GND #PWR011
U 1 1 606BC1D1
P 8975 2275
F 0 "#PWR011" H 8975 2025 50  0001 C CNN
F 1 "GND" H 8980 2102 50  0000 C CNN
F 2 "" H 8975 2275 50  0001 C CNN
F 3 "" H 8975 2275 50  0001 C CNN
	1    8975 2275
	1    0    0    -1  
$EndComp
Wire Wire Line
	8825 3100 9450 3100
Wire Wire Line
	8825 3400 9450 3400
Wire Wire Line
	9750 3100 10175 3100
Wire Wire Line
	8825 3875 9550 3875
Wire Wire Line
	8825 4475 9525 4475
Wire Wire Line
	9525 4475 9525 4700
$Comp
L power:GND #PWR014
U 1 1 606FE381
P 9525 4700
F 0 "#PWR014" H 9525 4450 50  0001 C CNN
F 1 "GND" H 9530 4527 50  0000 C CNN
F 2 "" H 9525 4700 50  0001 C CNN
F 3 "" H 9525 4700 50  0001 C CNN
	1    9525 4700
	1    0    0    -1  
$EndComp
Wire Notes Line
	10900 900  10900 5150
Wire Notes Line
	10900 5150 8150 5150
Wire Notes Line
	8150 5150 8150 900 
Wire Notes Line
	8150 900  10900 900 
Text Notes 8225 1050 0    50   ~ 0
Arduino Connection
NoConn ~ 8825 1400
NoConn ~ 8825 1500
NoConn ~ 8825 1600
NoConn ~ 8825 1700
NoConn ~ 8825 2100
NoConn ~ 8825 2900
NoConn ~ 8825 3000
NoConn ~ 8825 3200
NoConn ~ 8825 3300
NoConn ~ 8825 3500
NoConn ~ 8825 3600
NoConn ~ 8825 4075
NoConn ~ 8825 4175
NoConn ~ 8825 4275
NoConn ~ 8825 4375
$Comp
L power:PWR_FLAG #FLG0103
U 1 1 6075D009
P 9225 1600
F 0 "#FLG0103" H 9225 1675 50  0001 C CNN
F 1 "PWR_FLAG" V 9225 1728 50  0000 L CNN
F 2 "" H 9225 1600 50  0001 C CNN
F 3 "~" H 9225 1600 50  0001 C CNN
	1    9225 1600
	0    1    1    0   
$EndComp
Wire Wire Line
	2025 2025 2025 2225
Wire Wire Line
	2025 2225 2025 2450
Wire Wire Line
	2225 1375 2225 1925
Wire Wire Line
	9225 1450 9225 1800
$Comp
L power:+12V #PWR08
U 1 1 606788A3
P 6200 4000
F 0 "#PWR08" H 6200 3850 50  0001 C CNN
F 1 "+12V" V 6215 4128 50  0000 L CNN
F 2 "" H 6200 4000 50  0001 C CNN
F 3 "" H 6200 4000 50  0001 C CNN
	1    6200 4000
	0    1    1    0   
$EndComp
$Comp
L fab:Conn_StepStick J8
U 1 1 606F050C
P 5575 1450
F 0 "J8" H 5575 2131 50  0000 C CNN
F 1 "Conn_StepStick" H 5575 2040 50  0000 C CNN
F 2 "fab:Conn_StepStick" H 5775 750 50  0001 L CNN
F 3 "https://www.trinamic.com/fileadmin/assets/Products/Eval_Drawings/SilentStepStick-TMC2100_v13.pdf" H 5575 1850 50  0001 C CNN
	1    5575 1450
	1    0    0    -1  
$EndComp
$Comp
L fab:CP C2
U 1 1 606F0512
P 6350 825
F 0 "C2" H 6468 871 50  0000 L CNN
F 1 "100uF" H 6468 780 50  0000 L CNN
F 2 "fab:CP_Elec_10x10" H 6350 825 50  0001 C CNN
F 3 "" H 6350 825 50  0001 C CNN
	1    6350 825 
	1    0    0    -1  
$EndComp
Wire Wire Line
	6075 1350 6425 1350
Wire Wire Line
	6075 1450 6425 1450
Wire Wire Line
	6075 1550 6425 1550
Wire Wire Line
	6075 1650 6425 1650
Wire Wire Line
	6075 1850 6800 1850
$Comp
L power:GND #PWR?
U 1 1 606F051D
P 7250 1750
F 0 "#PWR?" H 7250 1500 50  0001 C CNN
F 1 "GND" V 7255 1622 50  0000 R CNN
F 2 "" H 7250 1750 50  0001 C CNN
F 3 "" H 7250 1750 50  0001 C CNN
	1    7250 1750
	0    -1   -1   0   
$EndComp
Wire Wire Line
	6075 1150 6350 1150
$Comp
L power:GND #PWR?
U 1 1 606F0524
P 6875 1150
F 0 "#PWR?" H 6875 900 50  0001 C CNN
F 1 "GND" V 6880 1022 50  0000 R CNN
F 2 "" H 6875 1150 50  0001 C CNN
F 3 "" H 6875 1150 50  0001 C CNN
	1    6875 1150
	0    -1   -1   0   
$EndComp
Wire Wire Line
	6075 1250 7275 1250
$Comp
L power:+5V #PWR?
U 1 1 606F052B
P 7275 1250
F 0 "#PWR?" H 7275 1100 50  0001 C CNN
F 1 "+5V" V 7290 1378 50  0000 L CNN
F 2 "" H 7275 1250 50  0001 C CNN
F 3 "" H 7275 1250 50  0001 C CNN
	1    7275 1250
	0    1    1    0   
$EndComp
Wire Wire Line
	5075 1150 4425 1150
Text Label 4425 1150 0    50   ~ 0
DIR
Wire Wire Line
	5075 1250 4425 1250
Text Label 4425 1250 0    50   ~ 0
STEP
Wire Wire Line
	5075 1850 4600 1850
Text Label 3700 1850 0    50   ~ 0
EN1
Wire Wire Line
	5075 1650 4600 1650
Wire Wire Line
	4600 1650 4600 1850
Connection ~ 4600 1850
Wire Wire Line
	5075 1750 4925 1750
Wire Wire Line
	4925 1750 4925 1550
Wire Wire Line
	4925 1550 5075 1550
Wire Wire Line
	4925 1750 4925 2125
Connection ~ 4925 1750
$Comp
L power:GND #PWR?
U 1 1 606F053F
P 4925 2125
F 0 "#PWR?" H 4925 1875 50  0001 C CNN
F 1 "GND" H 4930 1952 50  0000 C CNN
F 2 "" H 4925 2125 50  0001 C CNN
F 3 "" H 4925 2125 50  0001 C CNN
	1    4925 2125
	1    0    0    -1  
$EndComp
Wire Wire Line
	6350 975  6350 1150
Connection ~ 6350 1150
Wire Wire Line
	6350 1150 6875 1150
$Comp
L power:+12V #PWR?
U 1 1 606F0548
P 6350 400
F 0 "#PWR?" H 6350 250 50  0001 C CNN
F 1 "+12V" H 6365 573 50  0000 C CNN
F 2 "" H 6350 400 50  0001 C CNN
F 3 "" H 6350 400 50  0001 C CNN
	1    6350 400 
	1    0    0    -1  
$EndComp
Wire Wire Line
	6350 675  6350 400 
Text Label 6425 1350 2    50   ~ 0
M1B
Text Label 6425 1450 2    50   ~ 0
M1A
Text Label 6425 1550 2    50   ~ 0
M2A
Text Label 6425 1650 2    50   ~ 0
M2B
Wire Wire Line
	6075 1750 7250 1750
$Comp
L fab:R R5
U 1 1 606F0554
P 4200 1850
F 0 "R5" V 3993 1850 50  0000 C CNN
F 1 "0" V 4084 1850 50  0000 C CNN
F 2 "fab:R_1206" V 4130 1850 50  0001 C CNN
F 3 "~" H 4200 1850 50  0001 C CNN
	1    4200 1850
	0    1    1    0   
$EndComp
Wire Wire Line
	4350 1850 4600 1850
Wire Wire Line
	3700 1850 4050 1850
$Comp
L power:+12V #PWR?
U 1 1 606F055C
P 6800 1850
F 0 "#PWR?" H 6800 1700 50  0001 C CNN
F 1 "+12V" V 6815 1978 50  0000 L CNN
F 2 "" H 6800 1850 50  0001 C CNN
F 3 "" H 6800 1850 50  0001 C CNN
	1    6800 1850
	0    1    1    0   
$EndComp
Text Label 6100 5975 0    50   ~ 0
M2A
Text Label 6100 6075 0    50   ~ 0
M2B
Text Label 6100 6325 0    50   ~ 0
M1A
Text Label 6100 6225 0    50   ~ 0
M1B
$Comp
L fab:Screw_Terminal_01x02_P3.5mm J9
U 1 1 606F6656
P 6550 5975
F 0 "J9" H 6630 5967 50  0000 L CNN
F 1 "Screw_Terminal_01x02_P3.5mm" H 6630 5876 50  0000 L CNN
F 2 "fab:TerminalBlock_OnShore_1x02_P3.50mm_Horizontal" H 6550 5975 50  0001 C CNN
F 3 "www.on-shore.com/wp-content/uploads/ED555XDS.pdf" H 6550 5975 50  0001 C CNN
	1    6550 5975
	1    0    0    -1  
$EndComp
$Comp
L fab:Screw_Terminal_01x02_P3.5mm J10
U 1 1 606F665C
P 6550 6225
F 0 "J10" H 6630 6217 50  0000 L CNN
F 1 "Screw_Terminal_01x02_P3.5mm" H 6630 6126 50  0000 L CNN
F 2 "fab:TerminalBlock_OnShore_1x02_P3.50mm_Horizontal" H 6550 6225 50  0001 C CNN
F 3 "www.on-shore.com/wp-content/uploads/ED555XDS.pdf" H 6550 6225 50  0001 C CNN
	1    6550 6225
	1    0    0    -1  
$EndComp
Wire Wire Line
	6350 5975 6100 5975
Wire Wire Line
	6350 6075 6100 6075
Wire Wire Line
	6350 6225 6100 6225
Wire Wire Line
	6350 6325 6100 6325
$EndSCHEMATC
